email;firstname;lastname
null-walter@echocat.org;Paul;Walter
null-mueller@echocat.org;Max;Müller
null-ferdinand@echocat.org;Franz;Ferdinand
null-gustafsson@echocat.org;Karl;Gustafsson
null-lieblich@echocat.org;Werner;Lieblich
null-rabe@echocat.org;Harald;Rab